…
    ## # A tibble: 0 × 11
    ## # … with 11 variables: User_ID <dbl>, Product_ID <chr>, Gender <chr>,
    ## #   age_city <chr>, Occupation <dbl>, Stay_In_Current_City_Years <chr>,
    ## #   Marital_Status <dbl>, Product_Category_1 <dbl>, Product_Category_2 <dbl>,
    ## #   Product_Category_3 <dbl>, Purchase <dbl>

``` r
blackfriday_cat <- blackfriday %>% pivot_longer(c('Product_Category_1', 'Product_Category_2', 'Product_Category_3'), names_to = "Category_Order", values_to = "Prod_Category_ID", values_drop_na = TRUE)
blackfriday_cat
```

    ## # A tibble: 1,072,446 × 10
    ##    User_ID Product_ID Gender age_city Occupation Stay_…¹ Marit…² Purch…³ Categ…⁴
    ##      <dbl> <chr>      <chr>  <chr>         <dbl> <chr>     <dbl>   <dbl> <chr>  
    ##  1 1000001 P00069042  F      0-17_A           10 2             0    8370 Produc…
    ##  2 1000001 P00248942  F      0-17_A           10 2             0   15200 Produc…
    ##  3 1000001 P00248942  F      0-17_A           10 2             0   15200 Produc…
    ##  4 1000001 P00248942  F      0-17_A           10 2             0   15200 Produc…
    ##  5 1000001 P00087842  F      0-17_A           10 2             0    1422 Produc…
    ##  6 1000001 P00085442  F      0-17_A           10 2             0    1057 Produc…
    ##  7 1000001 P00085442  F      0-17_A           10 2             0    1057 Produc…
    ##  8 1000002 P00285442  M      55+_C            16 4+            0    7969 Produc…
    ##  9 1000003 P00193542  M      26-35_A          15 3             0   15227 Produc…
    ## 10 1000003 P00193542  M      26-35_A          15 3             0   15227 Produc…
    ## # … with 1,072,436 more rows, 1 more variable: Prod_Category_ID <dbl>, and
    ## #   abbreviated variable names ¹​Stay_In_Current_City_Years, ²​Marital_Status,
    ## #   ³​Purchase, ⁴​Category_Order
…
